US Credit Card - 6 Event study
…
Then, start doing your event study over and over again. Except each time you do it, pick a random time series to do it on, and pick a random day when the “event” is supposed to have happened.21

Code

selected_measure |>
    as_tibble() |>
    filter(LargeBank==1|LargeCreditCardBank==1) |>
    left_join(partners, relationship = "many-to-many") |>
    rename(value_diff.Bank = value_diff) |>
    mutate(Period = Quarter - yearquarter(acquired)) 

Joining with `by = join_by(BankName)`

# A tibble: 1,994 × 17
    IDRSSD BankName          Measure Label Description Value LargeBank OtherBank
     <int> <chr>             <chr>   <chr> <chr>       <dbl>     <int>     <int>
 1 3284070 ALLY BANK (32840… UBPRE5… LN_C… Credit Car…  1.05         1         0
 2 3284070 ALLY BANK (32840… UBPRE5… LN_C… Credit Car…  1.35         1         0
 3 3284070 ALLY BANK (32840… UBPRE5… LN_C… Credit Car…  1.47         1         0
 4 3284070 ALLY BANK (32840… UBPRE5… LN_C… Credit Car…  2.1          1         0
 5 3284070 ALLY BANK (32840… UBPRE5… LN_C… Credit Car…  2.38         1         0
 6 3284070 ALLY BANK (32840… UBPRE5… LN_C… Credit Car…  2.38         1         0
 7 3284070 ALLY BANK (32840… UBPRE5… LN_C… Credit Car…  2.79         1         0
 8 1394676 AMERICAN EXPRESS… UBPRE5… LN_C… Credit Car…  1.74         0         1
 9 1394676 AMERICAN EXPRESS… UBPRE5… LN_C… Credit Car…  1.93         0         1
10 1394676 AMERICAN EXPRESS… UBPRE5… LN_C… Credit Car…  1.6          0         1
# ℹ 1,984 more rows
# ℹ 9 more variables: LargeCreditCardBank <int>, Quarter <qtr>,
#   value_scaled <dbl[,1]>, value_diff.Bank <dbl>, name <chr>, acquired <date>,
#   available <date>, partnership <chr>, Period <dbl>
…
